{
    "basename": "asr-arrays_03_func-7c8d572",
    "cmd": "lfortran --show-asr --no-color {infile} -o {outfile}",
    "infile": "tests/../integration_tests/arrays_03_func.f90",
    "infile_hash": "9feab893fd240821f352bd8b0c12cb132cf39c706950d08f5a41cc54",
    "outfile": null,
    "outfile_hash": null,
    "stdout": "asr-arrays_03_func-7c8d572.stdout",
    "stdout_hash": "f38feeffd9b7e17dc79e11237d90d8347318feee1740d65d7d0a0b06",
    "stderr": null,
    "stderr_hash": null,
    "returncode": 0
}