{
    "basename": "asr-intrinsics_29-d4080f2",
    "cmd": "lfortran --show-asr --no-color {infile} -o {outfile}",
    "infile": "tests/../integration_tests/intrinsics_29.f90",
    "infile_hash": "16c52115980fa652cd9e0ade7a55786421b6801d678964a37095afbb",
    "outfile": null,
    "outfile_hash": null,
    "stdout": "asr-intrinsics_29-d4080f2.stdout",
    "stdout_hash": "d94f5383c253375bcd807144abf6ba03959e47ade39146f7f4dc83c8",
    "stderr": null,
    "stderr_hash": null,
    "returncode": 0
}