{
    "basename": "asr-array_01_transfer-125156e",
    "cmd": "lfortran --show-asr --no-color {infile} -o {outfile}",
    "infile": "tests/../integration_tests/array_01_transfer.f90",
    "infile_hash": "920caa9e18706045e10e552111ebbdee612fb11bdc829a77fcfa71ca",
    "outfile": null,
    "outfile_hash": null,
    "stdout": "asr-array_01_transfer-125156e.stdout",
    "stdout_hash": "6a0167e68fb340f54f06c442b203f37b15e2c43b376eef8230fb96ee",
    "stderr": null,
    "stderr_hash": null,
    "returncode": 0
}