{
    "basename": "asr-int_02-e7de6a7",
    "cmd": "lfortran --show-asr --no-color {infile} -o {outfile}",
    "infile": "tests/../integration_tests/int_02.f90",
    "infile_hash": "e0a72e598a44c468855decece6cfbb029978d0775ad4aae887346aed",
    "outfile": null,
    "outfile_hash": null,
    "stdout": "asr-int_02-e7de6a7.stdout",
    "stdout_hash": "e7a42cdb9cb2130fce0764a8c8c1b4f27e71b8a8062a39abad8a89ba",
    "stderr": null,
    "stderr_hash": null,
    "returncode": 0
}