{
    "basename": "asr-optional1-c14719e",
    "cmd": "lfortran --show-asr --no-color {infile} -o {outfile}",
    "infile": "tests/optional1.f90",
    "infile_hash": "b703b762ac35be7e690936d507787f8757837c9b46e25ddaeb99640b",
    "outfile": null,
    "outfile_hash": null,
    "stdout": "asr-optional1-c14719e.stdout",
    "stdout_hash": "45cbf7d9b70c4e947b7dd766e83539644eec8c3a6fadfed2f094891d",
    "stderr": null,
    "stderr_hash": null,
    "returncode": 0
}