{
    "basename": "asr-string_13-ae4df53",
    "cmd": "lfortran --show-asr --no-color {infile} -o {outfile}",
    "infile": "tests/../integration_tests/string_13.f90",
    "infile_hash": "25354bac77715f94447d94e23c5c51c4ece9145b600155f8a5cb4c9f",
    "outfile": null,
    "outfile_hash": null,
    "stdout": "asr-string_13-ae4df53.stdout",
    "stdout_hash": "54c8ac985973dc5b200431233690d4b919033ccd8ccc7ccaa8017866",
    "stderr": null,
    "stderr_hash": null,
    "returncode": 0
}