{
    "basename": "asr-intrinsics_31-9b91cfb",
    "cmd": "lfortran --show-asr --no-color {infile} -o {outfile}",
    "infile": "tests/../integration_tests/intrinsics_31.f90",
    "infile_hash": "f9db5457e09683e2b0afde876cbd0ddf85412c67117277ba413679af",
    "outfile": null,
    "outfile_hash": null,
    "stdout": "asr-intrinsics_31-9b91cfb.stdout",
    "stdout_hash": "8f6f61d95eeebbc96875536e5ec831af9acde62f383e6c392a30613b",
    "stderr": null,
    "stderr_hash": null,
    "returncode": 0
}