{
    "basename": "asr-generic_name_01-9f2fd25",
    "cmd": "lfortran --show-asr --no-color {infile} -o {outfile}",
    "infile": "tests/../integration_tests/generic_name_01.f90",
    "infile_hash": "412cff197c97ec2ab225b22c480cea7fa3755e6a6f963ab8d08d2995",
    "outfile": null,
    "outfile_hash": null,
    "stdout": "asr-generic_name_01-9f2fd25.stdout",
    "stdout_hash": "c9338b09dd05947de8cc1cd43be7eb12185a5a348b40fd7556ebe00e",
    "stderr": null,
    "stderr_hash": null,
    "returncode": 0
}