{
    "basename": "asr-arrays_op_1-f8b9cb0",
    "cmd": "lfortran --show-asr --no-color {infile} -o {outfile}",
    "infile": "tests/../integration_tests/arrays_op_1.f90",
    "infile_hash": "be5b09f7d22cbcd7a3e696dd73d60576efa0c24ad30f580af6465613",
    "outfile": null,
    "outfile_hash": null,
    "stdout": "asr-arrays_op_1-f8b9cb0.stdout",
    "stdout_hash": "52ee3c8f98879e0393e86eaf4c9656cf8b36f3d4d0f5f7301ee9cfc5",
    "stderr": null,
    "stderr_hash": null,
    "returncode": 0
}