{
    "basename": "asr-modules_04-0d478be",
    "cmd": "lfortran --show-asr --no-color {infile} -o {outfile}",
    "infile": "tests/modules_04.f90",
    "infile_hash": "001166d3ec02d038539957e7b333b2f02902687e96980e325831c745",
    "outfile": null,
    "outfile_hash": null,
    "stdout": "asr-modules_04-0d478be.stdout",
    "stdout_hash": "aa42ff70a6d322c4dc6894a0b245abc2239eab22fcd07d4cfdb02b5c",
    "stderr": null,
    "stderr_hash": null,
    "returncode": 0
}