{
    "basename": "asr-interface_01-9dc98da",
    "cmd": "lfortran --show-asr --no-color {infile} -o {outfile}",
    "infile": "tests/../integration_tests/interface_01.f90",
    "infile_hash": "56828a66265782f7acd20520a5d25ac6246d6d44dfb8fa758507ed63",
    "outfile": null,
    "outfile_hash": null,
    "stdout": "asr-interface_01-9dc98da.stdout",
    "stdout_hash": "2c46545bc0a3532efae19177829df9bb4792a46150b63c58505b4cb6",
    "stderr": null,
    "stderr_hash": null,
    "returncode": 0
}