{
    "basename": "asr-stop-c3f410b",
    "cmd": "lfortran --show-asr --no-color {infile} -o {outfile}",
    "infile": "tests/stop.f90",
    "infile_hash": "4992b783d9f3aeee0fc682e7600ed3b3e57f5d9e8ea4ef63ab0bbb4d",
    "outfile": null,
    "outfile_hash": null,
    "stdout": "asr-stop-c3f410b.stdout",
    "stdout_hash": "9e81a2a39d1a3dfbd0c338c007d4d67ac7729036352eff639f4801c9",
    "stderr": null,
    "stderr_hash": null,
    "returncode": 0
}