{
    "basename": "cpp-kokkos_program1-1d79f7a",
    "cmd": "lfortran --no-color --show-cpp {infile}",
    "infile": "tests/kokkos_program1.f90",
    "infile_hash": "81575b3ab7fd1a2dc16c67f0a5ff241d9057fed389befd1c3084d6ea",
    "outfile": null,
    "outfile_hash": null,
    "stdout": "cpp-kokkos_program1-1d79f7a.stdout",
    "stdout_hash": "e3b04dcbf0a5a8aa43ce6182aa27624c994358b19e419d656dce6725",
    "stderr": null,
    "stderr_hash": null,
    "returncode": 0
}