{
    "basename": "cpp-expr_05-3b5ec63",
    "cmd": "lfortran --no-color --show-cpp {infile}",
    "infile": "tests/../integration_tests/expr_05.f90",
    "infile_hash": "9ba64c46165206d070ba772850f2de89fe32d27c80328477131806ac",
    "outfile": null,
    "outfile_hash": null,
    "stdout": "cpp-expr_05-3b5ec63.stdout",
    "stdout_hash": "80417ea89c3d61300194b2c39f5af45f668c30f3121d7f8e446b2b57",
    "stderr": null,
    "stderr_hash": null,
    "returncode": 0
}